<svg width="24" height="24" viewBox="0 0 24 24" fill="none" xmlns="http://www.w3.org/2000/svg">
<path d="M8.6296 6.96525C7.48885 6.96525 6.56335 5.763 6.56335 4.2795C6.56335 2.796 7.4881 1.59375 8.6296 1.59375C9.77035 1.59375 10.6959 2.796 10.6959 4.2795C10.6959 5.763 9.77035 6.96525 8.6296 6.96525Z" fill="#1F2124"/>
<path fill-rule="evenodd" clip-rule="evenodd" d="M16.8473 22.9118C15.8423 22.9118 14.8718 22.5495 14.0641 21.8618L13.7956 21.6315C12.9751 20.925 12.6578 20.6805 12.0001 20.6805C11.3423 20.6805 11.0251 20.925 10.2046 21.6323L9.93609 21.8625C8.97009 22.686 7.77159 23.0408 6.56109 22.8713C5.30184 22.6928 4.19709 21.9713 3.44859 20.8395C1.99134 18.6345 2.39634 15.4868 4.35159 13.824L9.93609 9.07201C11.1503 8.03776 12.8498 8.03776 14.0641 9.07201L19.6486 13.824C21.6038 15.4875 22.0088 18.6345 20.5516 20.8395C19.8038 21.9713 18.6983 22.6928 17.4398 22.8713C17.2411 22.8983 17.0438 22.9118 16.8473 22.9118ZM12.0001 18.8055C13.3883 18.8055 14.1436 19.4565 15.0188 20.211L15.2783 20.4338C15.8296 20.9033 16.5068 21.1095 17.1758 21.0135C17.8966 20.9115 18.5393 20.4818 18.9871 19.8045C19.9403 18.3638 19.6913 16.3208 18.4343 15.2513L12.8498 10.4993C12.3331 10.0598 11.6678 10.0598 11.1503 10.4993L5.56584 15.2513C4.30809 16.3215 4.05984 18.3638 5.01309 19.8045C5.46159 20.4818 6.10434 20.9123 6.82434 21.0135C7.49634 21.1088 8.16909 20.9033 8.72184 20.4338L8.98134 20.211C9.85659 19.4565 10.6118 18.8055 12.0001 18.8055Z" fill="#1F2124"/>
<path d="M13.3044 4.2795C13.3044 5.763 14.2299 6.96525 15.3706 6.96525C16.5114 6.96525 17.4369 5.763 17.4369 4.2795C17.4369 2.796 16.5114 1.59375 15.3706 1.59375C14.2291 1.59375 13.3044 2.796 13.3044 4.2795Z" fill="#1F2124"/>
<path d="M20.6049 10.818C19.5691 10.818 18.7299 9.80026 18.7299 8.54551C18.7299 7.29076 19.5691 6.27301 20.6049 6.27301C21.6406 6.27301 22.4799 7.29076 22.4799 8.54551C22.4799 9.80026 21.6406 10.818 20.6049 10.818Z" fill="#1F2124"/>
<path d="M1.51514 8.54551C1.51514 9.80026 2.35439 10.818 3.39014 10.818C4.42589 10.818 5.26514 9.80026 5.26514 8.54551C5.26514 7.29076 4.42589 6.27301 3.39014 6.27301C2.35439 6.27301 1.51514 7.29076 1.51514 8.54551Z" fill="#1F2124"/>
</svg>
