<svg width="14" height="14" viewBox="0 0 14 14" fill="none" xmlns="http://www.w3.org/2000/svg">
<path fill-rule="evenodd" clip-rule="evenodd" d="M7.63889 3.47292H6.25V6.25069H3.47222V7.63958H6.25V10.4174H7.63889V7.63958H10.4167V6.25069H7.63889V3.47292ZM7 0C3.1402 0 0 3.1402 0 7C0 10.8605 3.1402 14 7 14C10.8598 14 14 10.8605 14 7C14 3.1402 10.8598 0 7 0ZM7 12.6C3.9123 12.6 1.4 10.0877 1.4 7C1.4 3.9123 3.9123 1.4 7 1.4C10.0877 1.4 12.6 3.9123 12.6 7C12.6 10.0877 10.0877 12.6 7 12.6Z" fill="#2E67D1"/>
</svg>
